{
    "version": "4.038a",
    "homepage": "https://mamedev.emulab.it/clrmamepro/",
    "architecture": {
        "64bit": {
            "url": "https://mamedev.emulab.it/clrmamepro/binaries/cmp4038a_64.zip",
            "hash": "93836d80089f5c0995f7749a0b1a638b32331024710127e4550df2a21f3ba54d",
            "bin": "cmpro64.exe",
            "shortcuts": [
                [
                    "cmpro64.exe",
                    "Clrmamepro"
                ]
            ]
        },
        "32bit": {
            "url": "https://mamedev.emulab.it/clrmamepro/binaries/cmp4038a_32.zip",
            "hash": "5cd289b81a663845e9b374aa2d1aad3b3f6fc6d7090882d6bb817ce627ef5f59",
            "bin": "cmpro.exe",
            "shortcuts": [
                [
                    "cmpro.exe",
                    "Clrmamepro"
                ]
            ]
        }
    },
    "pre_install": [
        "if (!(Test-Path $persist_dir\\profiler.xml)) { New-Item $dir\\profiler.xml | Out-Null}",
        "if (!(Test-Path $persist_dir\\wwwdats.ini)) { New-Item $dir\\wwwdats.ini | Out-Null}",
        "if (!(Test-Path $persist_dir\\cmpro.ini)) { New-Item $dir\\cmpro.ini | Out-Null}"
    ],
    "persist": [
        "backup",
        "datfiles",
        "dir2dat",
        "downloads",
        "fastscans",
        "logs",
        "scans",
        "settings",
        "fixdats",
        "lists",
        "setformat.xml",
        "profiler.xml",
        "wwwdats.ini",
        "urls.ini",
        "stats.ini",
        "cmpro.ini"
    ],
    "checkver": {
        "url": "https://mamedev.emulab.it/clrmamepro/",
        "re": "Clrmamepro (.*) released"
    },
    "autoupdate": {
        "architecture": {
            "64bit": {
                "url": "https://mamedev.emulab.it/clrmamepro/binaries/cmp$cleanVersion_64.zip"
            },
            "32bit": {
                "url": "https://mamedev.emulab.it/clrmamepro/binaries/cmp$cleanVersion_32.zip"
            }
        }
    }
}
