{
    "version": "4.8.5",
    "description": "Movies, TV Shows and Anime files organizer and renamer.",
    "homepage": "https://www.filebot.net/",
    "license": {
        "identifier": "Proprietary",
        "url": "https://www.filebot.net/eula.html"
    },
    "url": "https://github.com/barry-allen07/FB-Mod/releases/download/4.8.5/FileBot_4.8.5-Windows-Portable.zip",
    "hash": "7b04dad7737b09e8b26c9ea27255c22a7f4e5aa10644ee800ab2c9d71cab7641",
    "bin": "filebot.exe",
    "shortcuts": [
        [
            "filebot.launcher.exe",
            "FileBot"
        ]
    ],
    "persist": "data",
    "checkver": {
        "github": "https://github.com/barry-allen07/FB-Mod"
    },
    "autoupdate": {
        "url": "https://github.com/barry-allen07/FB-Mod/releases/download/$version/FileBot_$version-Windows-Portable.zip"
    }
}
