{
    "version": "1.24_Update_7",
    "homepage": "https://www.veracrypt.fr/",
    "license": "https://www.veracrypt.fr/code/VeraCrypt/plain/src/License.html",
    "url": "https://sourceforge.net/projects/portableapps/files/VeraCrypt%20Portable/VeraCryptPortable_1.24_Update_7.paf.exe#/dl.7z",
    "hash": "sha1:ff96f93345ab67c2bebda49db673ccd6a42d9d86",
    "bin": "VeraCryptPortable.exe",
    "shortcuts": [
        [
            "VeraCryptPortable.exe",
            "VeraCrypt Portable"
        ]
    ],
    "persist": "Data",
    "post_install": "Remove-Item -LiteralPath \"$dir\\`$PLUGINSDIR\" -Force -Recurse",
    "checkver": {
        "url": "https://sourceforge.net/projects/portableapps/rss?path=/VeraCrypt%20Portable",
        "re": "VeraCrypt Portable/VeraCryptPortable_([\\d.]+(?:[a-z])?(?:_Update_[\\d.])?).paf.exe"
    },
    "autoupdate": {
        "url": "https://sourceforge.net/projects/portableapps/files/VeraCrypt%20Portable/VeraCryptPortable_$version.paf.exe#/dl.7z"
    }
}
